﻿<Glide Version="1.0.7">
  <Window Name="saveProgram" Width="320" Height="240" BackColor="FFFFFF">
    <TextBox Name="programName" X="90" Y="70" Width="140" Height="32" Alpha="255" Text="" TextAlign="Left" Font="4" FontColor="000000"/>
  </Window>
</Glide>